^D:\INFORMATYKA\VISUAL STUDIO PROJECT\CONSOLEAPPLICATION1\CONSOLEAPPLICATION1\STDAFX.CPP
D:\INFORMATYKA\VISUAL STUDIO PROJECT\CONSOLEAPPLICATION1\CONSOLEAPPLICATION1\STDAFX.H
D:\INFORMATYKA\VISUAL STUDIO PROJECT\CONSOLEAPPLICATION1\CONSOLEAPPLICATION1\TARGETVER.H
C:\PROGRAM FILES (X86)\WINDOWS KITS\8.1\INCLUDE\SHARED\SDKDDKVER.H
D:\INFORMATYKA\VISUAL STUDIO ULTIMATE\VC\INCLUDE\STDIO.H
D:\INFORMATYKA\VISUAL STUDIO ULTIMATE\VC\INCLUDE\CRTDEFS.H
D:\INFORMATYKA\VISUAL STUDIO ULTIMATE\VC\INCLUDE\SAL.H
D:\INFORMATYKA\VISUAL STUDIO ULTIMATE\VC\INCLUDE\CONCURRENCYSAL.H
D:\INFORMATYKA\VISUAL STUDIO ULTIMATE\VC\INCLUDE\VADEFS.H
D:\INFORMATYKA\VISUAL STUDIO ULTIMATE\VC\INCLUDE\SWPRINTF.INL
D:\INFORMATYKA\VISUAL STUDIO ULTIMATE\VC\INCLUDE\TCHAR.H
D:\INFORMATYKA\VISUAL STUDIO ULTIMATE\VC\INCLUDE\WCHAR.H
D:\INFORMATYKA\VISUAL STUDIO ULTIMATE\VC\INCLUDE\WTIME.INL
^D:\INFORMATYKA\VISUAL STUDIO PROJECT\CONSOLEAPPLICATION1\CONSOLEAPPLICATION1\CONSOLEAPPLICATION1.CPP
D:\INFORMATYKA\VISUAL STUDIO ULTIMATE\VC\INCLUDE\TIME.H
D:\INFORMATYKA\VISUAL STUDIO ULTIMATE\VC\INCLUDE\CRTDEFS.H
D:\INFORMATYKA\VISUAL STUDIO ULTIMATE\VC\INCLUDE\SAL.H
D:\INFORMATYKA\VISUAL STUDIO ULTIMATE\VC\INCLUDE\CONCURRENCYSAL.H
D:\INFORMATYKA\VISUAL STUDIO ULTIMATE\VC\INCLUDE\VADEFS.H
D:\INFORMATYKA\VISUAL STUDIO ULTIMATE\VC\INCLUDE\WTIME.INL
D:\INFORMATYKA\VISUAL STUDIO ULTIMATE\VC\INCLUDE\TIME.INL
D:\INFORMATYKA\VISUAL STUDIO ULTIMATE\VC\INCLUDE\IOSTREAM
D:\INFORMATYKA\VISUAL STUDIO ULTIMATE\VC\INCLUDE\ISTREAM
D:\INFORMATYKA\VISUAL STUDIO ULTIMATE\VC\INCLUDE\OSTREAM
D:\INFORMATYKA\VISUAL STUDIO ULTIMATE\VC\INCLUDE\IOS
D:\INFORMATYKA\VISUAL STUDIO ULTIMATE\VC\INCLUDE\XLOCNUM
D:\INFORMATYKA\VISUAL STUDIO ULTIMATE\VC\INCLUDE\CLIMITS
D:\INFORMATYKA\VISUAL STUDIO ULTIMATE\VC\INCLUDE\YVALS.H
D:\INFORMATYKA\VISUAL STUDIO ULTIMATE\VC\INCLUDE\XKEYCHECK.H
D:\INFORMATYKA\VISUAL STUDIO ULTIMATE\VC\INCLUDE\USE_ANSI.H
D:\INFORMATYKA\VISUAL STUDIO ULTIMATE\VC\INCLUDE\LIMITS.H
D:\INFORMATYKA\VISUAL STUDIO ULTIMATE\VC\INCLUDE\CMATH
D:\INFORMATYKA\VISUAL STUDIO ULTIMATE\VC\INCLUDE\MATH.H
D:\INFORMATYKA\VISUAL STUDIO ULTIMATE\VC\INCLUDE\XTGMATH.H
D:\INFORMATYKA\VISUAL STUDIO ULTIMATE\VC\INCLUDE\XTR1COMMON
D:\INFORMATYKA\VISUAL STUDIO ULTIMATE\VC\INCLUDE\CSTDIO
D:\INFORMATYKA\VISUAL STUDIO ULTIMATE\VC\INCLUDE\STDIO.H
D:\INFORMATYKA\VISUAL STUDIO ULTIMATE\VC\INCLUDE\SWPRINTF.INL
D:\INFORMATYKA\VISUAL STUDIO ULTIMATE\VC\INCLUDE\CSTDLIB
D:\INFORMATYKA\VISUAL STUDIO ULTIMATE\VC\INCLUDE\STDLIB.H
D:\INFORMATYKA\VISUAL STUDIO ULTIMATE\VC\INCLUDE\STREAMBUF
D:\INFORMATYKA\VISUAL STUDIO ULTIMATE\VC\INCLUDE\XIOSBASE
D:\INFORMATYKA\VISUAL STUDIO ULTIMATE\VC\INCLUDE\XLOCALE
D:\INFORMATYKA\VISUAL STUDIO ULTIMATE\VC\INCLUDE\CSTRING
D:\INFORMATYKA\VISUAL STUDIO ULTIMATE\VC\INCLUDE\STRING.H
D:\INFORMATYKA\VISUAL STUDIO ULTIMATE\VC\INCLUDE\STDEXCEPT
D:\INFORMATYKA\VISUAL STUDIO ULTIMATE\VC\INCLUDE\EXCEPTION
D:\INFORMATYKA\VISUAL STUDIO ULTIMATE\VC\INCLUDE\XSTDDEF
D:\INFORMATYKA\VISUAL STUDIO ULTIMATE\VC\INCLUDE\CSTDDEF
D:\INFORMATYKA\VISUAL STUDIO ULTIMATE\VC\INCLUDE\STDDEF.H
D:\INFORMATYKA\VISUAL STUDIO ULTIMATE\VC\INCLUDE\INITIALIZER_LIST
D:\INFORMATYKA\VISUAL STUDIO ULTIMATE\VC\INCLUDE\EH.H
D:\INFORMATYKA\VISUAL STUDIO ULTIMATE\VC\INCLUDE\MALLOC.H
D:\INFORMATYKA\VISUAL STUDIO ULTIMATE\VC\INCLUDE\XSTRING
D:\INFORMATYKA\VISUAL STUDIO ULTIMATE\VC\INCLUDE\XMEMORY0
D:\INFORMATYKA\VISUAL STUDIO ULTIMATE\VC\INCLUDE\LIMITS
D:\INFORMATYKA\VISUAL STUDIO ULTIMATE\VC\INCLUDE\YMATH.H
D:\INFORMATYKA\VISUAL STUDIO ULTIMATE\VC\INCLUDE\CFLOAT
D:\INFORMATYKA\VISUAL STUDIO ULTIMATE\VC\INCLUDE\FLOAT.H
D:\INFORMATYKA\VISUAL STUDIO ULTIMATE\VC\INCLUDE\CRTWRN.H
D:\INFORMATYKA\VISUAL STUDIO ULTIMATE\VC\INCLUDE\CWCHAR
D:\INFORMATYKA\VISUAL STUDIO ULTIMATE\VC\INCLUDE\WCHAR.H
D:\INFORMATYKA\VISUAL STUDIO ULTIMATE\VC\INCLUDE\NEW
D:\INFORMATYKA\VISUAL STUDIO ULTIMATE\VC\INCLUDE\XUTILITY
D:\INFORMATYKA\VISUAL STUDIO ULTIMATE\VC\INCLUDE\UTILITY
D:\INFORMATYKA\VISUAL STUDIO ULTIMATE\VC\INCLUDE\IOSFWD
D:\INFORMATYKA\VISUAL STUDIO ULTIMATE\VC\INCLUDE\CRTDBG.H
D:\INFORMATYKA\VISUAL STUDIO ULTIMATE\VC\INCLUDE\TYPE_TRAITS
D:\INFORMATYKA\VISUAL STUDIO ULTIMATE\VC\INCLUDE\XREFWRAP
D:\INFORMATYKA\VISUAL STUDIO ULTIMATE\VC\INCLUDE\XATOMIC0.H
D:\INFORMATYKA\VISUAL STUDIO ULTIMATE\VC\INCLUDE\INTRIN.H
D:\INFORMATYKA\VISUAL STUDIO ULTIMATE\VC\INCLUDE\SETJMP.H
D:\INFORMATYKA\VISUAL STUDIO ULTIMATE\VC\INCLUDE\IMMINTRIN.H
D:\INFORMATYKA\VISUAL STUDIO ULTIMATE\VC\INCLUDE\WMMINTRIN.H
D:\INFORMATYKA\VISUAL STUDIO ULTIMATE\VC\INCLUDE\NMMINTRIN.H
D:\INFORMATYKA\VISUAL STUDIO ULTIMATE\VC\INCLUDE\SMMINTRIN.H
D:\INFORMATYKA\VISUAL STUDIO ULTIMATE\VC\INCLUDE\TMMINTRIN.H
D:\INFORMATYKA\VISUAL STUDIO ULTIMATE\VC\INCLUDE\PMMINTRIN.H
D:\INFORMATYKA\VISUAL STUDIO ULTIMATE\VC\INCLUDE\EMMINTRIN.H
D:\INFORMATYKA\VISUAL STUDIO ULTIMATE\VC\INCLUDE\XMMINTRIN.H
D:\INFORMATYKA\VISUAL STUDIO ULTIMATE\VC\INCLUDE\MMINTRIN.H
D:\INFORMATYKA\VISUAL STUDIO ULTIMATE\VC\INCLUDE\AMMINTRIN.H
D:\INFORMATYKA\VISUAL STUDIO ULTIMATE\VC\INCLUDE\MM3DNOW.H
D:\INFORMATYKA\VISUAL STUDIO ULTIMATE\VC\INCLUDE\TYPEINFO
D:\INFORMATYKA\VISUAL STUDIO ULTIMATE\VC\INCLUDE\XLOCINFO
D:\INFORMATYKA\VISUAL STUDIO ULTIMATE\VC\INCLUDE\XLOCINFO.H
D:\INFORMATYKA\VISUAL STUDIO ULTIMATE\VC\INCLUDE\CTYPE.H
D:\INFORMATYKA\VISUAL STUDIO ULTIMATE\VC\INCLUDE\LOCALE.H
D:\INFORMATYKA\VISUAL STUDIO ULTIMATE\VC\INCLUDE\XDEBUG
D:\INFORMATYKA\VISUAL STUDIO ULTIMATE\VC\INCLUDE\XMEMORY
D:\INFORMATYKA\VISUAL STUDIO ULTIMATE\VC\INCLUDE\XFACET
D:\INFORMATYKA\VISUAL STUDIO ULTIMATE\VC\INCLUDE\SYSTEM_ERROR
D:\INFORMATYKA\VISUAL STUDIO ULTIMATE\VC\INCLUDE\CERRNO
D:\INFORMATYKA\VISUAL STUDIO ULTIMATE\VC\INCLUDE\ERRNO.H
D:\INFORMATYKA\VISUAL STUDIO ULTIMATE\VC\INCLUDE\SHARE.H
D:\INFORMATYKA\VISUAL STUDIO ULTIMATE\VC\BIN\1033\CLUI.DLL
C:\WINDOWS\GLOBALIZATION\SORTING\SORTDEFAULT.NLS
C:\WINDOWS\SYSTEM32\RSAENH.DLL
C:\WINDOWS\SYSTEM32\TZRES.DLL
D:\INFORMATYKA\VISUAL STUDIO ULTIMATE\VC\BIN\MSPDBSRV.EXE
D:\INFORMATYKA\VISUAL STUDIO ULTIMATE\VC\INCLUDE\SYS\TYPES.H
D:\INFORMATYKA\VISUAL STUDIO PROJECT\CONSOLEAPPLICATION1\CONSOLEAPPLICATION1\KOPIEC.H
D:\INFORMATYKA\VISUAL STUDIO PROJECT\CONSOLEAPPLICATION1\CONSOLEAPPLICATION1\QUICKSORT.H
D:\INFORMATYKA\VISUAL STUDIO PROJECT\CONSOLEAPPLICATION1\CONSOLEAPPLICATION1\SIMPLESORT.H
D:\INFORMATYKA\VISUAL STUDIO PROJECT\CONSOLEAPPLICATION1\CONSOLEAPPLICATION1\SHELLSORT.H
D:\INFORMATYKA\VISUAL STUDIO PROJECT\CONSOLEAPPLICATION1\CONSOLEAPPLICATION1\MERGESORT.H
^D:\INFORMATYKA\VISUAL STUDIO PROJECT\CONSOLEAPPLICATION1\CONSOLEAPPLICATION1\KOPIEC.CPP
D:\INFORMATYKA\VISUAL STUDIO PROJECT\CONSOLEAPPLICATION1\CONSOLEAPPLICATION1\KOPIEC.H
D:\INFORMATYKA\VISUAL STUDIO ULTIMATE\VC\BIN\1033\CLUI.DLL
C:\WINDOWS\GLOBALIZATION\SORTING\SORTDEFAULT.NLS
C:\WINDOWS\SYSTEM32\RSAENH.DLL
C:\WINDOWS\SYSTEM32\TZRES.DLL
D:\INFORMATYKA\VISUAL STUDIO ULTIMATE\VC\BIN\MSPDBSRV.EXE
D:\INFORMATYKA\VISUAL STUDIO ULTIMATE\VC\INCLUDE\TIME.H
D:\INFORMATYKA\VISUAL STUDIO ULTIMATE\VC\INCLUDE\CRTDEFS.H
D:\INFORMATYKA\VISUAL STUDIO ULTIMATE\VC\INCLUDE\SAL.H
D:\INFORMATYKA\VISUAL STUDIO ULTIMATE\VC\INCLUDE\CONCURRENCYSAL.H
D:\INFORMATYKA\VISUAL STUDIO ULTIMATE\VC\INCLUDE\VADEFS.H
D:\INFORMATYKA\VISUAL STUDIO ULTIMATE\VC\INCLUDE\WTIME.INL
D:\INFORMATYKA\VISUAL STUDIO ULTIMATE\VC\INCLUDE\TIME.INL
D:\INFORMATYKA\VISUAL STUDIO ULTIMATE\VC\INCLUDE\IOSTREAM
D:\INFORMATYKA\VISUAL STUDIO ULTIMATE\VC\INCLUDE\ISTREAM
D:\INFORMATYKA\VISUAL STUDIO ULTIMATE\VC\INCLUDE\OSTREAM
D:\INFORMATYKA\VISUAL STUDIO ULTIMATE\VC\INCLUDE\IOS
D:\INFORMATYKA\VISUAL STUDIO ULTIMATE\VC\INCLUDE\XLOCNUM
D:\INFORMATYKA\VISUAL STUDIO ULTIMATE\VC\INCLUDE\CLIMITS
D:\INFORMATYKA\VISUAL STUDIO ULTIMATE\VC\INCLUDE\YVALS.H
D:\INFORMATYKA\VISUAL STUDIO ULTIMATE\VC\INCLUDE\XKEYCHECK.H
D:\INFORMATYKA\VISUAL STUDIO ULTIMATE\VC\INCLUDE\USE_ANSI.H
D:\INFORMATYKA\VISUAL STUDIO ULTIMATE\VC\INCLUDE\LIMITS.H
D:\INFORMATYKA\VISUAL STUDIO ULTIMATE\VC\INCLUDE\CMATH
D:\INFORMATYKA\VISUAL STUDIO ULTIMATE\VC\INCLUDE\MATH.H
D:\INFORMATYKA\VISUAL STUDIO ULTIMATE\VC\INCLUDE\XTGMATH.H
D:\INFORMATYKA\VISUAL STUDIO ULTIMATE\VC\INCLUDE\XTR1COMMON
D:\INFORMATYKA\VISUAL STUDIO ULTIMATE\VC\INCLUDE\CSTDIO
D:\INFORMATYKA\VISUAL STUDIO ULTIMATE\VC\INCLUDE\STDIO.H
D:\INFORMATYKA\VISUAL STUDIO ULTIMATE\VC\INCLUDE\SWPRINTF.INL
D:\INFORMATYKA\VISUAL STUDIO ULTIMATE\VC\INCLUDE\CSTDLIB
D:\INFORMATYKA\VISUAL STUDIO ULTIMATE\VC\INCLUDE\STDLIB.H
D:\INFORMATYKA\VISUAL STUDIO ULTIMATE\VC\INCLUDE\STREAMBUF
D:\INFORMATYKA\VISUAL STUDIO ULTIMATE\VC\INCLUDE\XIOSBASE
D:\INFORMATYKA\VISUAL STUDIO ULTIMATE\VC\INCLUDE\XLOCALE
D:\INFORMATYKA\VISUAL STUDIO ULTIMATE\VC\INCLUDE\CSTRING
D:\INFORMATYKA\VISUAL STUDIO ULTIMATE\VC\INCLUDE\STRING.H
D:\INFORMATYKA\VISUAL STUDIO ULTIMATE\VC\INCLUDE\STDEXCEPT
D:\INFORMATYKA\VISUAL STUDIO ULTIMATE\VC\INCLUDE\EXCEPTION
D:\INFORMATYKA\VISUAL STUDIO ULTIMATE\VC\INCLUDE\XSTDDEF
D:\INFORMATYKA\VISUAL STUDIO ULTIMATE\VC\INCLUDE\CSTDDEF
D:\INFORMATYKA\VISUAL STUDIO ULTIMATE\VC\INCLUDE\STDDEF.H
D:\INFORMATYKA\VISUAL STUDIO ULTIMATE\VC\INCLUDE\INITIALIZER_LIST
D:\INFORMATYKA\VISUAL STUDIO ULTIMATE\VC\INCLUDE\EH.H
D:\INFORMATYKA\VISUAL STUDIO ULTIMATE\VC\INCLUDE\MALLOC.H
D:\INFORMATYKA\VISUAL STUDIO ULTIMATE\VC\INCLUDE\XSTRING
D:\INFORMATYKA\VISUAL STUDIO ULTIMATE\VC\INCLUDE\XMEMORY0
D:\INFORMATYKA\VISUAL STUDIO ULTIMATE\VC\INCLUDE\LIMITS
D:\INFORMATYKA\VISUAL STUDIO ULTIMATE\VC\INCLUDE\YMATH.H
D:\INFORMATYKA\VISUAL STUDIO ULTIMATE\VC\INCLUDE\CFLOAT
D:\INFORMATYKA\VISUAL STUDIO ULTIMATE\VC\INCLUDE\FLOAT.H
D:\INFORMATYKA\VISUAL STUDIO ULTIMATE\VC\INCLUDE\CRTWRN.H
D:\INFORMATYKA\VISUAL STUDIO ULTIMATE\VC\INCLUDE\CWCHAR
D:\INFORMATYKA\VISUAL STUDIO ULTIMATE\VC\INCLUDE\WCHAR.H
D:\INFORMATYKA\VISUAL STUDIO ULTIMATE\VC\INCLUDE\NEW
D:\INFORMATYKA\VISUAL STUDIO ULTIMATE\VC\INCLUDE\XUTILITY
D:\INFORMATYKA\VISUAL STUDIO ULTIMATE\VC\INCLUDE\UTILITY
D:\INFORMATYKA\VISUAL STUDIO ULTIMATE\VC\INCLUDE\IOSFWD
D:\INFORMATYKA\VISUAL STUDIO ULTIMATE\VC\INCLUDE\CRTDBG.H
D:\INFORMATYKA\VISUAL STUDIO ULTIMATE\VC\INCLUDE\TYPE_TRAITS
D:\INFORMATYKA\VISUAL STUDIO ULTIMATE\VC\INCLUDE\XREFWRAP
D:\INFORMATYKA\VISUAL STUDIO ULTIMATE\VC\INCLUDE\XATOMIC0.H
D:\INFORMATYKA\VISUAL STUDIO ULTIMATE\VC\INCLUDE\INTRIN.H
D:\INFORMATYKA\VISUAL STUDIO ULTIMATE\VC\INCLUDE\SETJMP.H
D:\INFORMATYKA\VISUAL STUDIO ULTIMATE\VC\INCLUDE\IMMINTRIN.H
D:\INFORMATYKA\VISUAL STUDIO ULTIMATE\VC\INCLUDE\WMMINTRIN.H
D:\INFORMATYKA\VISUAL STUDIO ULTIMATE\VC\INCLUDE\NMMINTRIN.H
D:\INFORMATYKA\VISUAL STUDIO ULTIMATE\VC\INCLUDE\SMMINTRIN.H
D:\INFORMATYKA\VISUAL STUDIO ULTIMATE\VC\INCLUDE\TMMINTRIN.H
D:\INFORMATYKA\VISUAL STUDIO ULTIMATE\VC\INCLUDE\PMMINTRIN.H
D:\INFORMATYKA\VISUAL STUDIO ULTIMATE\VC\INCLUDE\EMMINTRIN.H
D:\INFORMATYKA\VISUAL STUDIO ULTIMATE\VC\INCLUDE\XMMINTRIN.H
D:\INFORMATYKA\VISUAL STUDIO ULTIMATE\VC\INCLUDE\MMINTRIN.H
D:\INFORMATYKA\VISUAL STUDIO ULTIMATE\VC\INCLUDE\AMMINTRIN.H
D:\INFORMATYKA\VISUAL STUDIO ULTIMATE\VC\INCLUDE\MM3DNOW.H
D:\INFORMATYKA\VISUAL STUDIO ULTIMATE\VC\INCLUDE\TYPEINFO
D:\INFORMATYKA\VISUAL STUDIO ULTIMATE\VC\INCLUDE\XLOCINFO
D:\INFORMATYKA\VISUAL STUDIO ULTIMATE\VC\INCLUDE\XLOCINFO.H
D:\INFORMATYKA\VISUAL STUDIO ULTIMATE\VC\INCLUDE\CTYPE.H
D:\INFORMATYKA\VISUAL STUDIO ULTIMATE\VC\INCLUDE\LOCALE.H
D:\INFORMATYKA\VISUAL STUDIO ULTIMATE\VC\INCLUDE\XDEBUG
D:\INFORMATYKA\VISUAL STUDIO ULTIMATE\VC\INCLUDE\XMEMORY
D:\INFORMATYKA\VISUAL STUDIO ULTIMATE\VC\INCLUDE\XFACET
D:\INFORMATYKA\VISUAL STUDIO ULTIMATE\VC\INCLUDE\SYSTEM_ERROR
D:\INFORMATYKA\VISUAL STUDIO ULTIMATE\VC\INCLUDE\CERRNO
D:\INFORMATYKA\VISUAL STUDIO ULTIMATE\VC\INCLUDE\ERRNO.H
D:\INFORMATYKA\VISUAL STUDIO ULTIMATE\VC\INCLUDE\SHARE.H
^D:\INFORMATYKA\VISUAL STUDIO PROJECT\CONSOLEAPPLICATION1\CONSOLEAPPLICATION1\SIMPLESORT.CPP
D:\INFORMATYKA\VISUAL STUDIO PROJECT\CONSOLEAPPLICATION1\CONSOLEAPPLICATION1\SIMPLESORT.H
D:\INFORMATYKA\VISUAL STUDIO ULTIMATE\VC\INCLUDE\TIME.H
D:\INFORMATYKA\VISUAL STUDIO ULTIMATE\VC\INCLUDE\CRTDEFS.H
D:\INFORMATYKA\VISUAL STUDIO ULTIMATE\VC\INCLUDE\SAL.H
D:\INFORMATYKA\VISUAL STUDIO ULTIMATE\VC\INCLUDE\CONCURRENCYSAL.H
D:\INFORMATYKA\VISUAL STUDIO ULTIMATE\VC\INCLUDE\VADEFS.H
D:\INFORMATYKA\VISUAL STUDIO ULTIMATE\VC\INCLUDE\WTIME.INL
D:\INFORMATYKA\VISUAL STUDIO ULTIMATE\VC\INCLUDE\TIME.INL
D:\INFORMATYKA\VISUAL STUDIO ULTIMATE\VC\INCLUDE\IOSTREAM
D:\INFORMATYKA\VISUAL STUDIO ULTIMATE\VC\INCLUDE\ISTREAM
D:\INFORMATYKA\VISUAL STUDIO ULTIMATE\VC\INCLUDE\OSTREAM
D:\INFORMATYKA\VISUAL STUDIO ULTIMATE\VC\INCLUDE\IOS
D:\INFORMATYKA\VISUAL STUDIO ULTIMATE\VC\INCLUDE\XLOCNUM
D:\INFORMATYKA\VISUAL STUDIO ULTIMATE\VC\INCLUDE\CLIMITS
D:\INFORMATYKA\VISUAL STUDIO ULTIMATE\VC\INCLUDE\YVALS.H
D:\INFORMATYKA\VISUAL STUDIO ULTIMATE\VC\INCLUDE\XKEYCHECK.H
D:\INFORMATYKA\VISUAL STUDIO ULTIMATE\VC\INCLUDE\USE_ANSI.H
D:\INFORMATYKA\VISUAL STUDIO ULTIMATE\VC\INCLUDE\LIMITS.H
D:\INFORMATYKA\VISUAL STUDIO ULTIMATE\VC\INCLUDE\CMATH
D:\INFORMATYKA\VISUAL STUDIO ULTIMATE\VC\INCLUDE\MATH.H
D:\INFORMATYKA\VISUAL STUDIO ULTIMATE\VC\INCLUDE\XTGMATH.H
D:\INFORMATYKA\VISUAL STUDIO ULTIMATE\VC\INCLUDE\XTR1COMMON
D:\INFORMATYKA\VISUAL STUDIO ULTIMATE\VC\INCLUDE\CSTDIO
D:\INFORMATYKA\VISUAL STUDIO ULTIMATE\VC\INCLUDE\STDIO.H
D:\INFORMATYKA\VISUAL STUDIO ULTIMATE\VC\INCLUDE\SWPRINTF.INL
D:\INFORMATYKA\VISUAL STUDIO ULTIMATE\VC\INCLUDE\CSTDLIB
D:\INFORMATYKA\VISUAL STUDIO ULTIMATE\VC\INCLUDE\STDLIB.H
D:\INFORMATYKA\VISUAL STUDIO ULTIMATE\VC\INCLUDE\STREAMBUF
D:\INFORMATYKA\VISUAL STUDIO ULTIMATE\VC\INCLUDE\XIOSBASE
D:\INFORMATYKA\VISUAL STUDIO ULTIMATE\VC\INCLUDE\XLOCALE
D:\INFORMATYKA\VISUAL STUDIO ULTIMATE\VC\INCLUDE\CSTRING
D:\INFORMATYKA\VISUAL STUDIO ULTIMATE\VC\INCLUDE\STRING.H
D:\INFORMATYKA\VISUAL STUDIO ULTIMATE\VC\INCLUDE\STDEXCEPT
D:\INFORMATYKA\VISUAL STUDIO ULTIMATE\VC\INCLUDE\EXCEPTION
D:\INFORMATYKA\VISUAL STUDIO ULTIMATE\VC\INCLUDE\XSTDDEF
D:\INFORMATYKA\VISUAL STUDIO ULTIMATE\VC\INCLUDE\CSTDDEF
D:\INFORMATYKA\VISUAL STUDIO ULTIMATE\VC\INCLUDE\STDDEF.H
D:\INFORMATYKA\VISUAL STUDIO ULTIMATE\VC\INCLUDE\INITIALIZER_LIST
D:\INFORMATYKA\VISUAL STUDIO ULTIMATE\VC\INCLUDE\EH.H
D:\INFORMATYKA\VISUAL STUDIO ULTIMATE\VC\INCLUDE\MALLOC.H
D:\INFORMATYKA\VISUAL STUDIO ULTIMATE\VC\INCLUDE\XSTRING
D:\INFORMATYKA\VISUAL STUDIO ULTIMATE\VC\INCLUDE\XMEMORY0
D:\INFORMATYKA\VISUAL STUDIO ULTIMATE\VC\INCLUDE\LIMITS
D:\INFORMATYKA\VISUAL STUDIO ULTIMATE\VC\INCLUDE\YMATH.H
D:\INFORMATYKA\VISUAL STUDIO ULTIMATE\VC\INCLUDE\CFLOAT
D:\INFORMATYKA\VISUAL STUDIO ULTIMATE\VC\INCLUDE\FLOAT.H
D:\INFORMATYKA\VISUAL STUDIO ULTIMATE\VC\INCLUDE\CRTWRN.H
D:\INFORMATYKA\VISUAL STUDIO ULTIMATE\VC\INCLUDE\CWCHAR
D:\INFORMATYKA\VISUAL STUDIO ULTIMATE\VC\INCLUDE\WCHAR.H
D:\INFORMATYKA\VISUAL STUDIO ULTIMATE\VC\INCLUDE\NEW
D:\INFORMATYKA\VISUAL STUDIO ULTIMATE\VC\INCLUDE\XUTILITY
D:\INFORMATYKA\VISUAL STUDIO ULTIMATE\VC\INCLUDE\UTILITY
D:\INFORMATYKA\VISUAL STUDIO ULTIMATE\VC\INCLUDE\IOSFWD
D:\INFORMATYKA\VISUAL STUDIO ULTIMATE\VC\INCLUDE\CRTDBG.H
D:\INFORMATYKA\VISUAL STUDIO ULTIMATE\VC\INCLUDE\TYPE_TRAITS
D:\INFORMATYKA\VISUAL STUDIO ULTIMATE\VC\INCLUDE\XREFWRAP
D:\INFORMATYKA\VISUAL STUDIO ULTIMATE\VC\INCLUDE\XATOMIC0.H
D:\INFORMATYKA\VISUAL STUDIO ULTIMATE\VC\INCLUDE\INTRIN.H
D:\INFORMATYKA\VISUAL STUDIO ULTIMATE\VC\INCLUDE\SETJMP.H
D:\INFORMATYKA\VISUAL STUDIO ULTIMATE\VC\INCLUDE\IMMINTRIN.H
D:\INFORMATYKA\VISUAL STUDIO ULTIMATE\VC\INCLUDE\WMMINTRIN.H
D:\INFORMATYKA\VISUAL STUDIO ULTIMATE\VC\INCLUDE\NMMINTRIN.H
D:\INFORMATYKA\VISUAL STUDIO ULTIMATE\VC\INCLUDE\SMMINTRIN.H
D:\INFORMATYKA\VISUAL STUDIO ULTIMATE\VC\INCLUDE\TMMINTRIN.H
D:\INFORMATYKA\VISUAL STUDIO ULTIMATE\VC\INCLUDE\PMMINTRIN.H
D:\INFORMATYKA\VISUAL STUDIO ULTIMATE\VC\INCLUDE\EMMINTRIN.H
D:\INFORMATYKA\VISUAL STUDIO ULTIMATE\VC\INCLUDE\XMMINTRIN.H
D:\INFORMATYKA\VISUAL STUDIO ULTIMATE\VC\INCLUDE\MMINTRIN.H
D:\INFORMATYKA\VISUAL STUDIO ULTIMATE\VC\INCLUDE\AMMINTRIN.H
D:\INFORMATYKA\VISUAL STUDIO ULTIMATE\VC\INCLUDE\MM3DNOW.H
D:\INFORMATYKA\VISUAL STUDIO ULTIMATE\VC\INCLUDE\TYPEINFO
D:\INFORMATYKA\VISUAL STUDIO ULTIMATE\VC\INCLUDE\XLOCINFO
D:\INFORMATYKA\VISUAL STUDIO ULTIMATE\VC\INCLUDE\XLOCINFO.H
D:\INFORMATYKA\VISUAL STUDIO ULTIMATE\VC\INCLUDE\CTYPE.H
D:\INFORMATYKA\VISUAL STUDIO ULTIMATE\VC\INCLUDE\LOCALE.H
D:\INFORMATYKA\VISUAL STUDIO ULTIMATE\VC\INCLUDE\XDEBUG
D:\INFORMATYKA\VISUAL STUDIO ULTIMATE\VC\INCLUDE\XMEMORY
D:\INFORMATYKA\VISUAL STUDIO ULTIMATE\VC\INCLUDE\XFACET
D:\INFORMATYKA\VISUAL STUDIO ULTIMATE\VC\INCLUDE\SYSTEM_ERROR
D:\INFORMATYKA\VISUAL STUDIO ULTIMATE\VC\INCLUDE\CERRNO
D:\INFORMATYKA\VISUAL STUDIO ULTIMATE\VC\INCLUDE\ERRNO.H
D:\INFORMATYKA\VISUAL STUDIO ULTIMATE\VC\INCLUDE\SHARE.H
^D:\INFORMATYKA\VISUAL STUDIO PROJECT\CONSOLEAPPLICATION1\CONSOLEAPPLICATION1\QUICKSORT.CPP
D:\INFORMATYKA\VISUAL STUDIO PROJECT\CONSOLEAPPLICATION1\CONSOLEAPPLICATION1\QUICKSORT.H
D:\INFORMATYKA\VISUAL STUDIO ULTIMATE\VC\BIN\1033\CLUI.DLL
C:\WINDOWS\GLOBALIZATION\SORTING\SORTDEFAULT.NLS
C:\WINDOWS\SYSTEM32\RSAENH.DLL
D:\INFORMATYKA\VISUAL STUDIO ULTIMATE\VC\BIN\MSPDBSRV.EXE
C:\WINDOWS\SYSTEM32\TZRES.DLL
^D:\INFORMATYKA\VISUAL STUDIO PROJECT\CONSOLEAPPLICATION1\CONSOLEAPPLICATION1\SHELLSORT.CPP
D:\INFORMATYKA\VISUAL STUDIO PROJECT\CONSOLEAPPLICATION1\CONSOLEAPPLICATION1\SHELLSORT.H
D:\INFORMATYKA\VISUAL STUDIO ULTIMATE\VC\INCLUDE\MATH.H
D:\INFORMATYKA\VISUAL STUDIO ULTIMATE\VC\INCLUDE\CRTDEFS.H
D:\INFORMATYKA\VISUAL STUDIO ULTIMATE\VC\INCLUDE\SAL.H
D:\INFORMATYKA\VISUAL STUDIO ULTIMATE\VC\INCLUDE\CONCURRENCYSAL.H
D:\INFORMATYKA\VISUAL STUDIO ULTIMATE\VC\INCLUDE\VADEFS.H
D:\INFORMATYKA\VISUAL STUDIO ULTIMATE\VC\BIN\1033\CLUI.DLL
C:\WINDOWS\GLOBALIZATION\SORTING\SORTDEFAULT.NLS
C:\WINDOWS\SYSTEM32\RSAENH.DLL
C:\WINDOWS\SYSTEM32\TZRES.DLL
D:\INFORMATYKA\VISUAL STUDIO ULTIMATE\VC\BIN\MSPDBSRV.EXE
^D:\INFORMATYKA\VISUAL STUDIO PROJECT\CONSOLEAPPLICATION1\CONSOLEAPPLICATION1\MERGESORT.CPP
D:\INFORMATYKA\VISUAL STUDIO ULTIMATE\VC\BIN\1033\CLUI.DLL
C:\WINDOWS\GLOBALIZATION\SORTING\SORTDEFAULT.NLS
C:\WINDOWS\SYSTEM32\RSAENH.DLL
D:\INFORMATYKA\VISUAL STUDIO ULTIMATE\VC\BIN\MSPDBSRV.EXE
C:\WINDOWS\SYSTEM32\TZRES.DLL
D:\INFORMATYKA\VISUAL STUDIO PROJECT\CONSOLEAPPLICATION1\CONSOLEAPPLICATION1\MERGESORT.H
^D:\INFORMATYKA\C PROJECTS\CONSOLEAPPLICATION1\CONSOLEAPPLICATION1\STDAFX.CPP
D:\INFORMATYKA\C PROJECTS\CONSOLEAPPLICATION1\CONSOLEAPPLICATION1\STDAFX.H
D:\INFORMATYKA\C PROJECTS\CONSOLEAPPLICATION1\CONSOLEAPPLICATION1\TARGETVER.H
C:\PROGRAM FILES (X86)\WINDOWS KITS\8.1\INCLUDE\SHARED\SDKDDKVER.H
C:\PROGRAM FILES (X86)\WINDOWS KITS\10\INCLUDE\10.0.10240.0\UCRT\STDIO.H
C:\PROGRAM FILES (X86)\WINDOWS KITS\10\INCLUDE\10.0.10240.0\UCRT\CORECRT.H
D:\INFORMATYKA\MICROSOFT VISUAL STUDIO 14.0\VC\INCLUDE\VCRUNTIME.H
D:\INFORMATYKA\MICROSOFT VISUAL STUDIO 14.0\VC\INCLUDE\SAL.H
D:\INFORMATYKA\MICROSOFT VISUAL STUDIO 14.0\VC\INCLUDE\CONCURRENCYSAL.H
D:\INFORMATYKA\MICROSOFT VISUAL STUDIO 14.0\VC\INCLUDE\VADEFS.H
C:\PROGRAM FILES (X86)\WINDOWS KITS\10\INCLUDE\10.0.10240.0\UCRT\CORECRT_WSTDIO.H
C:\PROGRAM FILES (X86)\WINDOWS KITS\10\INCLUDE\10.0.10240.0\UCRT\CORECRT_STDIO_CONFIG.H
C:\PROGRAM FILES (X86)\WINDOWS KITS\10\INCLUDE\10.0.10240.0\UCRT\TCHAR.H
C:\PROGRAM FILES (X86)\WINDOWS KITS\10\INCLUDE\10.0.10240.0\UCRT\WCHAR.H
C:\PROGRAM FILES (X86)\WINDOWS KITS\10\INCLUDE\10.0.10240.0\UCRT\CORECRT_MEMCPY_S.H
C:\PROGRAM FILES (X86)\WINDOWS KITS\10\INCLUDE\10.0.10240.0\UCRT\ERRNO.H
D:\INFORMATYKA\MICROSOFT VISUAL STUDIO 14.0\VC\INCLUDE\VCRUNTIME_STRING.H
C:\PROGRAM FILES (X86)\WINDOWS KITS\10\INCLUDE\10.0.10240.0\UCRT\CORECRT_WCONIO.H
C:\PROGRAM FILES (X86)\WINDOWS KITS\10\INCLUDE\10.0.10240.0\UCRT\CORECRT_WCTYPE.H
C:\PROGRAM FILES (X86)\WINDOWS KITS\10\INCLUDE\10.0.10240.0\UCRT\CORECRT_WDIRECT.H
C:\PROGRAM FILES (X86)\WINDOWS KITS\10\INCLUDE\10.0.10240.0\UCRT\CORECRT_WIO.H
C:\PROGRAM FILES (X86)\WINDOWS KITS\10\INCLUDE\10.0.10240.0\UCRT\CORECRT_SHARE.H
C:\PROGRAM FILES (X86)\WINDOWS KITS\10\INCLUDE\10.0.10240.0\UCRT\CORECRT_WPROCESS.H
C:\PROGRAM FILES (X86)\WINDOWS KITS\10\INCLUDE\10.0.10240.0\UCRT\CORECRT_WSTDLIB.H
C:\PROGRAM FILES (X86)\WINDOWS KITS\10\INCLUDE\10.0.10240.0\UCRT\CORECRT_WSTRING.H
C:\PROGRAM FILES (X86)\WINDOWS KITS\10\INCLUDE\10.0.10240.0\UCRT\CORECRT_WTIME.H
C:\PROGRAM FILES (X86)\WINDOWS KITS\10\INCLUDE\10.0.10240.0\UCRT\SYS\STAT.H
C:\PROGRAM FILES (X86)\WINDOWS KITS\10\INCLUDE\10.0.10240.0\UCRT\SYS\TYPES.H
^D:\INFORMATYKA\C PROJECTS\CONSOLEAPPLICATION1\CONSOLEAPPLICATION1\SIMPLESORT.CPP
D:\INFORMATYKA\C PROJECTS\CONSOLEAPPLICATION1\CONSOLEAPPLICATION1\SIMPLESORT.H
C:\PROGRAM FILES (X86)\WINDOWS KITS\10\INCLUDE\10.0.10240.0\UCRT\TIME.H
C:\PROGRAM FILES (X86)\WINDOWS KITS\10\INCLUDE\10.0.10240.0\UCRT\CORECRT.H
D:\INFORMATYKA\MICROSOFT VISUAL STUDIO 14.0\VC\INCLUDE\VCRUNTIME.H
D:\INFORMATYKA\MICROSOFT VISUAL STUDIO 14.0\VC\INCLUDE\SAL.H
D:\INFORMATYKA\MICROSOFT VISUAL STUDIO 14.0\VC\INCLUDE\CONCURRENCYSAL.H
D:\INFORMATYKA\MICROSOFT VISUAL STUDIO 14.0\VC\INCLUDE\VADEFS.H
C:\PROGRAM FILES (X86)\WINDOWS KITS\10\INCLUDE\10.0.10240.0\UCRT\CORECRT_WTIME.H
D:\INFORMATYKA\MICROSOFT VISUAL STUDIO 14.0\VC\INCLUDE\IOSTREAM
D:\INFORMATYKA\MICROSOFT VISUAL STUDIO 14.0\VC\INCLUDE\ISTREAM
D:\INFORMATYKA\MICROSOFT VISUAL STUDIO 14.0\VC\INCLUDE\OSTREAM
D:\INFORMATYKA\MICROSOFT VISUAL STUDIO 14.0\VC\INCLUDE\IOS
D:\INFORMATYKA\MICROSOFT VISUAL STUDIO 14.0\VC\INCLUDE\XLOCNUM
D:\INFORMATYKA\MICROSOFT VISUAL STUDIO 14.0\VC\INCLUDE\CLIMITS
D:\INFORMATYKA\MICROSOFT VISUAL STUDIO 14.0\VC\INCLUDE\YVALS.H
D:\INFORMATYKA\MICROSOFT VISUAL STUDIO 14.0\VC\INCLUDE\XKEYCHECK.H
D:\INFORMATYKA\MICROSOFT VISUAL STUDIO 14.0\VC\INCLUDE\CRTDEFS.H
D:\INFORMATYKA\MICROSOFT VISUAL STUDIO 14.0\VC\INCLUDE\USE_ANSI.H
D:\INFORMATYKA\MICROSOFT VISUAL STUDIO 14.0\VC\INCLUDE\LIMITS.H
D:\INFORMATYKA\MICROSOFT VISUAL STUDIO 14.0\VC\INCLUDE\CMATH
C:\PROGRAM FILES (X86)\WINDOWS KITS\10\INCLUDE\10.0.10240.0\UCRT\MATH.H
D:\INFORMATYKA\MICROSOFT VISUAL STUDIO 14.0\VC\INCLUDE\XTGMATH.H
D:\INFORMATYKA\MICROSOFT VISUAL STUDIO 14.0\VC\INCLUDE\XTR1COMMON
D:\INFORMATYKA\MICROSOFT VISUAL STUDIO 14.0\VC\INCLUDE\CSTDLIB
C:\PROGRAM FILES (X86)\WINDOWS KITS\10\INCLUDE\10.0.10240.0\UCRT\STDLIB.H
C:\PROGRAM FILES (X86)\WINDOWS KITS\10\INCLUDE\10.0.10240.0\UCRT\CORECRT_MALLOC.H
C:\PROGRAM FILES (X86)\WINDOWS KITS\10\INCLUDE\10.0.10240.0\UCRT\CORECRT_SEARCH.H
C:\PROGRAM FILES (X86)\WINDOWS KITS\10\INCLUDE\10.0.10240.0\UCRT\STDDEF.H
C:\PROGRAM FILES (X86)\WINDOWS KITS\10\INCLUDE\10.0.10240.0\UCRT\CORECRT_WSTDLIB.H
D:\INFORMATYKA\MICROSOFT VISUAL STUDIO 14.0\VC\INCLUDE\CSTDIO
C:\PROGRAM FILES (X86)\WINDOWS KITS\10\INCLUDE\10.0.10240.0\UCRT\STDIO.H
C:\PROGRAM FILES (X86)\WINDOWS KITS\10\INCLUDE\10.0.10240.0\UCRT\CORECRT_WSTDIO.H
C:\PROGRAM FILES (X86)\WINDOWS KITS\10\INCLUDE\10.0.10240.0\UCRT\CORECRT_STDIO_CONFIG.H
D:\INFORMATYKA\MICROSOFT VISUAL STUDIO 14.0\VC\INCLUDE\STREAMBUF
D:\INFORMATYKA\MICROSOFT VISUAL STUDIO 14.0\VC\INCLUDE\XIOSBASE
D:\INFORMATYKA\MICROSOFT VISUAL STUDIO 14.0\VC\INCLUDE\XLOCALE
D:\INFORMATYKA\MICROSOFT VISUAL STUDIO 14.0\VC\INCLUDE\CSTRING
C:\PROGRAM FILES (X86)\WINDOWS KITS\10\INCLUDE\10.0.10240.0\UCRT\STRING.H
C:\PROGRAM FILES (X86)\WINDOWS KITS\10\INCLUDE\10.0.10240.0\UCRT\CORECRT_MEMORY.H
C:\PROGRAM FILES (X86)\WINDOWS KITS\10\INCLUDE\10.0.10240.0\UCRT\CORECRT_MEMCPY_S.H
C:\PROGRAM FILES (X86)\WINDOWS KITS\10\INCLUDE\10.0.10240.0\UCRT\ERRNO.H
D:\INFORMATYKA\MICROSOFT VISUAL STUDIO 14.0\VC\INCLUDE\VCRUNTIME_STRING.H
C:\PROGRAM FILES (X86)\WINDOWS KITS\10\INCLUDE\10.0.10240.0\UCRT\CORECRT_WSTRING.H
D:\INFORMATYKA\MICROSOFT VISUAL STUDIO 14.0\VC\INCLUDE\STDEXCEPT
D:\INFORMATYKA\MICROSOFT VISUAL STUDIO 14.0\VC\INCLUDE\EXCEPTION
D:\INFORMATYKA\MICROSOFT VISUAL STUDIO 14.0\VC\INCLUDE\TYPE_TRAITS
D:\INFORMATYKA\MICROSOFT VISUAL STUDIO 14.0\VC\INCLUDE\XSTDDEF
D:\INFORMATYKA\MICROSOFT VISUAL STUDIO 14.0\VC\INCLUDE\CSTDDEF
D:\INFORMATYKA\MICROSOFT VISUAL STUDIO 14.0\VC\INCLUDE\INITIALIZER_LIST
C:\PROGRAM FILES (X86)\WINDOWS KITS\10\INCLUDE\10.0.10240.0\UCRT\MALLOC.H
D:\INFORMATYKA\MICROSOFT VISUAL STUDIO 14.0\VC\INCLUDE\VCRUNTIME_EXCEPTION.H
D:\INFORMATYKA\MICROSOFT VISUAL STUDIO 14.0\VC\INCLUDE\EH.H
C:\PROGRAM FILES (X86)\WINDOWS KITS\10\INCLUDE\10.0.10240.0\UCRT\CORECRT_TERMINATE.H
D:\INFORMATYKA\MICROSOFT VISUAL STUDIO 14.0\VC\INCLUDE\XSTRING
D:\INFORMATYKA\MICROSOFT VISUAL STUDIO 14.0\VC\INCLUDE\XMEMORY0
D:\INFORMATYKA\MICROSOFT VISUAL STUDIO 14.0\VC\INCLUDE\CSTDINT
D:\INFORMATYKA\MICROSOFT VISUAL STUDIO 14.0\VC\INCLUDE\STDINT.H
D:\INFORMATYKA\MICROSOFT VISUAL STUDIO 14.0\VC\INCLUDE\LIMITS
D:\INFORMATYKA\MICROSOFT VISUAL STUDIO 14.0\VC\INCLUDE\YMATH.H
D:\INFORMATYKA\MICROSOFT VISUAL STUDIO 14.0\VC\INCLUDE\CFLOAT
C:\PROGRAM FILES (X86)\WINDOWS KITS\10\INCLUDE\10.0.10240.0\UCRT\FLOAT.H
D:\INFORMATYKA\MICROSOFT VISUAL STUDIO 14.0\VC\INCLUDE\CWCHAR
C:\PROGRAM FILES (X86)\WINDOWS KITS\10\INCLUDE\10.0.10240.0\UCRT\WCHAR.H
C:\PROGRAM FILES (X86)\WINDOWS KITS\10\INCLUDE\10.0.10240.0\UCRT\CORECRT_WCONIO.H
C:\PROGRAM FILES (X86)\WINDOWS KITS\10\INCLUDE\10.0.10240.0\UCRT\CORECRT_WCTYPE.H
C:\PROGRAM FILES (X86)\WINDOWS KITS\10\INCLUDE\10.0.10240.0\UCRT\CORECRT_WDIRECT.H
C:\PROGRAM FILES (X86)\WINDOWS KITS\10\INCLUDE\10.0.10240.0\UCRT\CORECRT_WIO.H
C:\PROGRAM FILES (X86)\WINDOWS KITS\10\INCLUDE\10.0.10240.0\UCRT\CORECRT_SHARE.H
C:\PROGRAM FILES (X86)\WINDOWS KITS\10\INCLUDE\10.0.10240.0\UCRT\CORECRT_WPROCESS.H
C:\PROGRAM FILES (X86)\WINDOWS KITS\10\INCLUDE\10.0.10240.0\UCRT\SYS\STAT.H
C:\PROGRAM FILES (X86)\WINDOWS KITS\10\INCLUDE\10.0.10240.0\UCRT\SYS\TYPES.H
D:\INFORMATYKA\MICROSOFT VISUAL STUDIO 14.0\VC\INCLUDE\NEW
D:\INFORMATYKA\MICROSOFT VISUAL STUDIO 14.0\VC\INCLUDE\VCRUNTIME_NEW.H
D:\INFORMATYKA\MICROSOFT VISUAL STUDIO 14.0\VC\INCLUDE\XUTILITY
D:\INFORMATYKA\MICROSOFT VISUAL STUDIO 14.0\VC\INCLUDE\UTILITY
D:\INFORMATYKA\MICROSOFT VISUAL STUDIO 14.0\VC\INCLUDE\IOSFWD
C:\PROGRAM FILES (X86)\WINDOWS KITS\10\INCLUDE\10.0.10240.0\UCRT\CRTDBG.H
D:\INFORMATYKA\MICROSOFT VISUAL STUDIO 14.0\VC\INCLUDE\VCRUNTIME_NEW_DEBUG.H
D:\INFORMATYKA\MICROSOFT VISUAL STUDIO 14.0\VC\INCLUDE\XATOMIC0.H
D:\INFORMATYKA\MICROSOFT VISUAL STUDIO 14.0\VC\INCLUDE\INTRIN.H
D:\INFORMATYKA\MICROSOFT VISUAL STUDIO 14.0\VC\INCLUDE\SETJMP.H
D:\INFORMATYKA\MICROSOFT VISUAL STUDIO 14.0\VC\INCLUDE\IMMINTRIN.H
D:\INFORMATYKA\MICROSOFT VISUAL STUDIO 14.0\VC\INCLUDE\WMMINTRIN.H
D:\INFORMATYKA\MICROSOFT VISUAL STUDIO 14.0\VC\INCLUDE\NMMINTRIN.H
D:\INFORMATYKA\MICROSOFT VISUAL STUDIO 14.0\VC\INCLUDE\SMMINTRIN.H
D:\INFORMATYKA\MICROSOFT VISUAL STUDIO 14.0\VC\INCLUDE\TMMINTRIN.H
D:\INFORMATYKA\MICROSOFT VISUAL STUDIO 14.0\VC\INCLUDE\PMMINTRIN.H
D:\INFORMATYKA\MICROSOFT VISUAL STUDIO 14.0\VC\INCLUDE\EMMINTRIN.H
D:\INFORMATYKA\MICROSOFT VISUAL STUDIO 14.0\VC\INCLUDE\XMMINTRIN.H
D:\INFORMATYKA\MICROSOFT VISUAL STUDIO 14.0\VC\INCLUDE\MMINTRIN.H
D:\INFORMATYKA\MICROSOFT VISUAL STUDIO 14.0\VC\INCLUDE\AMMINTRIN.H
D:\INFORMATYKA\MICROSOFT VISUAL STUDIO 14.0\VC\INCLUDE\MM3DNOW.H
D:\INFORMATYKA\MICROSOFT VISUAL STUDIO 14.0\VC\INCLUDE\TYPEINFO
D:\INFORMATYKA\MICROSOFT VISUAL STUDIO 14.0\VC\INCLUDE\VCRUNTIME_TYPEINFO.H
D:\INFORMATYKA\MICROSOFT VISUAL STUDIO 14.0\VC\INCLUDE\XLOCINFO
D:\INFORMATYKA\MICROSOFT VISUAL STUDIO 14.0\VC\INCLUDE\XLOCINFO.H
C:\PROGRAM FILES (X86)\WINDOWS KITS\10\INCLUDE\10.0.10240.0\UCRT\CTYPE.H
C:\PROGRAM FILES (X86)\WINDOWS KITS\10\INCLUDE\10.0.10240.0\UCRT\LOCALE.H
D:\INFORMATYKA\MICROSOFT VISUAL STUDIO 14.0\VC\INCLUDE\XFACET
D:\INFORMATYKA\MICROSOFT VISUAL STUDIO 14.0\VC\INCLUDE\SYSTEM_ERROR
D:\INFORMATYKA\MICROSOFT VISUAL STUDIO 14.0\VC\INCLUDE\CERRNO
C:\PROGRAM FILES (X86)\WINDOWS KITS\10\INCLUDE\10.0.10240.0\UCRT\SHARE.H
^D:\INFORMATYKA\C PROJECTS\CONSOLEAPPLICATION1\CONSOLEAPPLICATION1\SHELLSORT.CPP
D:\INFORMATYKA\C PROJECTS\CONSOLEAPPLICATION1\CONSOLEAPPLICATION1\SHELLSORT.H
C:\PROGRAM FILES (X86)\WINDOWS KITS\10\INCLUDE\10.0.10240.0\UCRT\MATH.H
C:\PROGRAM FILES (X86)\WINDOWS KITS\10\INCLUDE\10.0.10240.0\UCRT\CORECRT.H
D:\INFORMATYKA\MICROSOFT VISUAL STUDIO 14.0\VC\INCLUDE\VCRUNTIME.H
D:\INFORMATYKA\MICROSOFT VISUAL STUDIO 14.0\VC\INCLUDE\SAL.H
D:\INFORMATYKA\MICROSOFT VISUAL STUDIO 14.0\VC\INCLUDE\CONCURRENCYSAL.H
D:\INFORMATYKA\MICROSOFT VISUAL STUDIO 14.0\VC\INCLUDE\VADEFS.H
^D:\INFORMATYKA\C PROJECTS\CONSOLEAPPLICATION1\CONSOLEAPPLICATION1\QUICKSORT.CPP
D:\INFORMATYKA\C PROJECTS\CONSOLEAPPLICATION1\CONSOLEAPPLICATION1\QUICKSORT.H
^D:\INFORMATYKA\C PROJECTS\CONSOLEAPPLICATION1\CONSOLEAPPLICATION1\MERGESORT.CPP
D:\INFORMATYKA\C PROJECTS\CONSOLEAPPLICATION1\CONSOLEAPPLICATION1\MERGESORT.H
^D:\INFORMATYKA\C PROJECTS\CONSOLEAPPLICATION1\CONSOLEAPPLICATION1\KOPIEC.CPP
D:\INFORMATYKA\C PROJECTS\CONSOLEAPPLICATION1\CONSOLEAPPLICATION1\KOPIEC.H
C:\PROGRAM FILES (X86)\WINDOWS KITS\10\INCLUDE\10.0.10240.0\UCRT\TIME.H
C:\PROGRAM FILES (X86)\WINDOWS KITS\10\INCLUDE\10.0.10240.0\UCRT\CORECRT.H
D:\INFORMATYKA\MICROSOFT VISUAL STUDIO 14.0\VC\INCLUDE\VCRUNTIME.H
D:\INFORMATYKA\MICROSOFT VISUAL STUDIO 14.0\VC\INCLUDE\SAL.H
D:\INFORMATYKA\MICROSOFT VISUAL STUDIO 14.0\VC\INCLUDE\CONCURRENCYSAL.H
D:\INFORMATYKA\MICROSOFT VISUAL STUDIO 14.0\VC\INCLUDE\VADEFS.H
C:\PROGRAM FILES (X86)\WINDOWS KITS\10\INCLUDE\10.0.10240.0\UCRT\CORECRT_WTIME.H
D:\INFORMATYKA\MICROSOFT VISUAL STUDIO 14.0\VC\INCLUDE\IOSTREAM
D:\INFORMATYKA\MICROSOFT VISUAL STUDIO 14.0\VC\INCLUDE\ISTREAM
D:\INFORMATYKA\MICROSOFT VISUAL STUDIO 14.0\VC\INCLUDE\OSTREAM
D:\INFORMATYKA\MICROSOFT VISUAL STUDIO 14.0\VC\INCLUDE\IOS
D:\INFORMATYKA\MICROSOFT VISUAL STUDIO 14.0\VC\INCLUDE\XLOCNUM
D:\INFORMATYKA\MICROSOFT VISUAL STUDIO 14.0\VC\INCLUDE\CLIMITS
D:\INFORMATYKA\MICROSOFT VISUAL STUDIO 14.0\VC\INCLUDE\YVALS.H
D:\INFORMATYKA\MICROSOFT VISUAL STUDIO 14.0\VC\INCLUDE\XKEYCHECK.H
D:\INFORMATYKA\MICROSOFT VISUAL STUDIO 14.0\VC\INCLUDE\CRTDEFS.H
D:\INFORMATYKA\MICROSOFT VISUAL STUDIO 14.0\VC\INCLUDE\USE_ANSI.H
D:\INFORMATYKA\MICROSOFT VISUAL STUDIO 14.0\VC\INCLUDE\LIMITS.H
D:\INFORMATYKA\MICROSOFT VISUAL STUDIO 14.0\VC\INCLUDE\CMATH
C:\PROGRAM FILES (X86)\WINDOWS KITS\10\INCLUDE\10.0.10240.0\UCRT\MATH.H
D:\INFORMATYKA\MICROSOFT VISUAL STUDIO 14.0\VC\INCLUDE\XTGMATH.H
D:\INFORMATYKA\MICROSOFT VISUAL STUDIO 14.0\VC\INCLUDE\XTR1COMMON
D:\INFORMATYKA\MICROSOFT VISUAL STUDIO 14.0\VC\INCLUDE\CSTDLIB
C:\PROGRAM FILES (X86)\WINDOWS KITS\10\INCLUDE\10.0.10240.0\UCRT\STDLIB.H
C:\PROGRAM FILES (X86)\WINDOWS KITS\10\INCLUDE\10.0.10240.0\UCRT\CORECRT_MALLOC.H
C:\PROGRAM FILES (X86)\WINDOWS KITS\10\INCLUDE\10.0.10240.0\UCRT\CORECRT_SEARCH.H
C:\PROGRAM FILES (X86)\WINDOWS KITS\10\INCLUDE\10.0.10240.0\UCRT\STDDEF.H
C:\PROGRAM FILES (X86)\WINDOWS KITS\10\INCLUDE\10.0.10240.0\UCRT\CORECRT_WSTDLIB.H
D:\INFORMATYKA\MICROSOFT VISUAL STUDIO 14.0\VC\INCLUDE\CSTDIO
C:\PROGRAM FILES (X86)\WINDOWS KITS\10\INCLUDE\10.0.10240.0\UCRT\STDIO.H
C:\PROGRAM FILES (X86)\WINDOWS KITS\10\INCLUDE\10.0.10240.0\UCRT\CORECRT_WSTDIO.H
C:\PROGRAM FILES (X86)\WINDOWS KITS\10\INCLUDE\10.0.10240.0\UCRT\CORECRT_STDIO_CONFIG.H
D:\INFORMATYKA\MICROSOFT VISUAL STUDIO 14.0\VC\INCLUDE\STREAMBUF
D:\INFORMATYKA\MICROSOFT VISUAL STUDIO 14.0\VC\INCLUDE\XIOSBASE
D:\INFORMATYKA\MICROSOFT VISUAL STUDIO 14.0\VC\INCLUDE\XLOCALE
D:\INFORMATYKA\MICROSOFT VISUAL STUDIO 14.0\VC\INCLUDE\CSTRING
C:\PROGRAM FILES (X86)\WINDOWS KITS\10\INCLUDE\10.0.10240.0\UCRT\STRING.H
C:\PROGRAM FILES (X86)\WINDOWS KITS\10\INCLUDE\10.0.10240.0\UCRT\CORECRT_MEMORY.H
C:\PROGRAM FILES (X86)\WINDOWS KITS\10\INCLUDE\10.0.10240.0\UCRT\CORECRT_MEMCPY_S.H
C:\PROGRAM FILES (X86)\WINDOWS KITS\10\INCLUDE\10.0.10240.0\UCRT\ERRNO.H
D:\INFORMATYKA\MICROSOFT VISUAL STUDIO 14.0\VC\INCLUDE\VCRUNTIME_STRING.H
C:\PROGRAM FILES (X86)\WINDOWS KITS\10\INCLUDE\10.0.10240.0\UCRT\CORECRT_WSTRING.H
D:\INFORMATYKA\MICROSOFT VISUAL STUDIO 14.0\VC\INCLUDE\STDEXCEPT
D:\INFORMATYKA\MICROSOFT VISUAL STUDIO 14.0\VC\INCLUDE\EXCEPTION
D:\INFORMATYKA\MICROSOFT VISUAL STUDIO 14.0\VC\INCLUDE\TYPE_TRAITS
D:\INFORMATYKA\MICROSOFT VISUAL STUDIO 14.0\VC\INCLUDE\XSTDDEF
D:\INFORMATYKA\MICROSOFT VISUAL STUDIO 14.0\VC\INCLUDE\CSTDDEF
D:\INFORMATYKA\MICROSOFT VISUAL STUDIO 14.0\VC\INCLUDE\INITIALIZER_LIST
C:\PROGRAM FILES (X86)\WINDOWS KITS\10\INCLUDE\10.0.10240.0\UCRT\MALLOC.H
D:\INFORMATYKA\MICROSOFT VISUAL STUDIO 14.0\VC\INCLUDE\VCRUNTIME_EXCEPTION.H
D:\INFORMATYKA\MICROSOFT VISUAL STUDIO 14.0\VC\INCLUDE\EH.H
C:\PROGRAM FILES (X86)\WINDOWS KITS\10\INCLUDE\10.0.10240.0\UCRT\CORECRT_TERMINATE.H
D:\INFORMATYKA\MICROSOFT VISUAL STUDIO 14.0\VC\INCLUDE\XSTRING
D:\INFORMATYKA\MICROSOFT VISUAL STUDIO 14.0\VC\INCLUDE\XMEMORY0
D:\INFORMATYKA\MICROSOFT VISUAL STUDIO 14.0\VC\INCLUDE\CSTDINT
D:\INFORMATYKA\MICROSOFT VISUAL STUDIO 14.0\VC\INCLUDE\STDINT.H
D:\INFORMATYKA\MICROSOFT VISUAL STUDIO 14.0\VC\INCLUDE\LIMITS
D:\INFORMATYKA\MICROSOFT VISUAL STUDIO 14.0\VC\INCLUDE\YMATH.H
D:\INFORMATYKA\MICROSOFT VISUAL STUDIO 14.0\VC\INCLUDE\CFLOAT
C:\PROGRAM FILES (X86)\WINDOWS KITS\10\INCLUDE\10.0.10240.0\UCRT\FLOAT.H
D:\INFORMATYKA\MICROSOFT VISUAL STUDIO 14.0\VC\INCLUDE\CWCHAR
C:\PROGRAM FILES (X86)\WINDOWS KITS\10\INCLUDE\10.0.10240.0\UCRT\WCHAR.H
C:\PROGRAM FILES (X86)\WINDOWS KITS\10\INCLUDE\10.0.10240.0\UCRT\CORECRT_WCONIO.H
C:\PROGRAM FILES (X86)\WINDOWS KITS\10\INCLUDE\10.0.10240.0\UCRT\CORECRT_WCTYPE.H
C:\PROGRAM FILES (X86)\WINDOWS KITS\10\INCLUDE\10.0.10240.0\UCRT\CORECRT_WDIRECT.H
C:\PROGRAM FILES (X86)\WINDOWS KITS\10\INCLUDE\10.0.10240.0\UCRT\CORECRT_WIO.H
C:\PROGRAM FILES (X86)\WINDOWS KITS\10\INCLUDE\10.0.10240.0\UCRT\CORECRT_SHARE.H
C:\PROGRAM FILES (X86)\WINDOWS KITS\10\INCLUDE\10.0.10240.0\UCRT\CORECRT_WPROCESS.H
C:\PROGRAM FILES (X86)\WINDOWS KITS\10\INCLUDE\10.0.10240.0\UCRT\SYS\STAT.H
C:\PROGRAM FILES (X86)\WINDOWS KITS\10\INCLUDE\10.0.10240.0\UCRT\SYS\TYPES.H
D:\INFORMATYKA\MICROSOFT VISUAL STUDIO 14.0\VC\INCLUDE\NEW
D:\INFORMATYKA\MICROSOFT VISUAL STUDIO 14.0\VC\INCLUDE\VCRUNTIME_NEW.H
D:\INFORMATYKA\MICROSOFT VISUAL STUDIO 14.0\VC\INCLUDE\XUTILITY
D:\INFORMATYKA\MICROSOFT VISUAL STUDIO 14.0\VC\INCLUDE\UTILITY
D:\INFORMATYKA\MICROSOFT VISUAL STUDIO 14.0\VC\INCLUDE\IOSFWD
C:\PROGRAM FILES (X86)\WINDOWS KITS\10\INCLUDE\10.0.10240.0\UCRT\CRTDBG.H
D:\INFORMATYKA\MICROSOFT VISUAL STUDIO 14.0\VC\INCLUDE\VCRUNTIME_NEW_DEBUG.H
D:\INFORMATYKA\MICROSOFT VISUAL STUDIO 14.0\VC\INCLUDE\XATOMIC0.H
D:\INFORMATYKA\MICROSOFT VISUAL STUDIO 14.0\VC\INCLUDE\INTRIN.H
D:\INFORMATYKA\MICROSOFT VISUAL STUDIO 14.0\VC\INCLUDE\SETJMP.H
D:\INFORMATYKA\MICROSOFT VISUAL STUDIO 14.0\VC\INCLUDE\IMMINTRIN.H
D:\INFORMATYKA\MICROSOFT VISUAL STUDIO 14.0\VC\INCLUDE\WMMINTRIN.H
D:\INFORMATYKA\MICROSOFT VISUAL STUDIO 14.0\VC\INCLUDE\NMMINTRIN.H
D:\INFORMATYKA\MICROSOFT VISUAL STUDIO 14.0\VC\INCLUDE\SMMINTRIN.H
D:\INFORMATYKA\MICROSOFT VISUAL STUDIO 14.0\VC\INCLUDE\TMMINTRIN.H
D:\INFORMATYKA\MICROSOFT VISUAL STUDIO 14.0\VC\INCLUDE\PMMINTRIN.H
D:\INFORMATYKA\MICROSOFT VISUAL STUDIO 14.0\VC\INCLUDE\EMMINTRIN.H
D:\INFORMATYKA\MICROSOFT VISUAL STUDIO 14.0\VC\INCLUDE\XMMINTRIN.H
D:\INFORMATYKA\MICROSOFT VISUAL STUDIO 14.0\VC\INCLUDE\MMINTRIN.H
D:\INFORMATYKA\MICROSOFT VISUAL STUDIO 14.0\VC\INCLUDE\AMMINTRIN.H
D:\INFORMATYKA\MICROSOFT VISUAL STUDIO 14.0\VC\INCLUDE\MM3DNOW.H
D:\INFORMATYKA\MICROSOFT VISUAL STUDIO 14.0\VC\INCLUDE\TYPEINFO
D:\INFORMATYKA\MICROSOFT VISUAL STUDIO 14.0\VC\INCLUDE\VCRUNTIME_TYPEINFO.H
D:\INFORMATYKA\MICROSOFT VISUAL STUDIO 14.0\VC\INCLUDE\XLOCINFO
D:\INFORMATYKA\MICROSOFT VISUAL STUDIO 14.0\VC\INCLUDE\XLOCINFO.H
C:\PROGRAM FILES (X86)\WINDOWS KITS\10\INCLUDE\10.0.10240.0\UCRT\CTYPE.H
C:\PROGRAM FILES (X86)\WINDOWS KITS\10\INCLUDE\10.0.10240.0\UCRT\LOCALE.H
D:\INFORMATYKA\MICROSOFT VISUAL STUDIO 14.0\VC\INCLUDE\XFACET
D:\INFORMATYKA\MICROSOFT VISUAL STUDIO 14.0\VC\INCLUDE\SYSTEM_ERROR
D:\INFORMATYKA\MICROSOFT VISUAL STUDIO 14.0\VC\INCLUDE\CERRNO
C:\PROGRAM FILES (X86)\WINDOWS KITS\10\INCLUDE\10.0.10240.0\UCRT\SHARE.H
^D:\INFORMATYKA\C PROJECTS\CONSOLEAPPLICATION1\CONSOLEAPPLICATION1\CONSOLEAPPLICATION1.CPP
C:\PROGRAM FILES (X86)\WINDOWS KITS\10\INCLUDE\10.0.10240.0\UCRT\TIME.H
C:\PROGRAM FILES (X86)\WINDOWS KITS\10\INCLUDE\10.0.10240.0\UCRT\CORECRT.H
D:\INFORMATYKA\MICROSOFT VISUAL STUDIO 14.0\VC\INCLUDE\VCRUNTIME.H
D:\INFORMATYKA\MICROSOFT VISUAL STUDIO 14.0\VC\INCLUDE\SAL.H
D:\INFORMATYKA\MICROSOFT VISUAL STUDIO 14.0\VC\INCLUDE\CONCURRENCYSAL.H
D:\INFORMATYKA\MICROSOFT VISUAL STUDIO 14.0\VC\INCLUDE\VADEFS.H
C:\PROGRAM FILES (X86)\WINDOWS KITS\10\INCLUDE\10.0.10240.0\UCRT\CORECRT_WTIME.H
D:\INFORMATYKA\MICROSOFT VISUAL STUDIO 14.0\VC\INCLUDE\IOSTREAM
D:\INFORMATYKA\MICROSOFT VISUAL STUDIO 14.0\VC\INCLUDE\ISTREAM
D:\INFORMATYKA\MICROSOFT VISUAL STUDIO 14.0\VC\INCLUDE\OSTREAM
D:\INFORMATYKA\MICROSOFT VISUAL STUDIO 14.0\VC\INCLUDE\IOS
D:\INFORMATYKA\MICROSOFT VISUAL STUDIO 14.0\VC\INCLUDE\XLOCNUM
D:\INFORMATYKA\MICROSOFT VISUAL STUDIO 14.0\VC\INCLUDE\CLIMITS
D:\INFORMATYKA\MICROSOFT VISUAL STUDIO 14.0\VC\INCLUDE\YVALS.H
D:\INFORMATYKA\MICROSOFT VISUAL STUDIO 14.0\VC\INCLUDE\XKEYCHECK.H
D:\INFORMATYKA\MICROSOFT VISUAL STUDIO 14.0\VC\INCLUDE\CRTDEFS.H
D:\INFORMATYKA\MICROSOFT VISUAL STUDIO 14.0\VC\INCLUDE\USE_ANSI.H
D:\INFORMATYKA\MICROSOFT VISUAL STUDIO 14.0\VC\INCLUDE\LIMITS.H
D:\INFORMATYKA\MICROSOFT VISUAL STUDIO 14.0\VC\INCLUDE\CMATH
C:\PROGRAM FILES (X86)\WINDOWS KITS\10\INCLUDE\10.0.10240.0\UCRT\MATH.H
D:\INFORMATYKA\MICROSOFT VISUAL STUDIO 14.0\VC\INCLUDE\XTGMATH.H
D:\INFORMATYKA\MICROSOFT VISUAL STUDIO 14.0\VC\INCLUDE\XTR1COMMON
D:\INFORMATYKA\MICROSOFT VISUAL STUDIO 14.0\VC\INCLUDE\CSTDLIB
C:\PROGRAM FILES (X86)\WINDOWS KITS\10\INCLUDE\10.0.10240.0\UCRT\STDLIB.H
C:\PROGRAM FILES (X86)\WINDOWS KITS\10\INCLUDE\10.0.10240.0\UCRT\CORECRT_MALLOC.H
C:\PROGRAM FILES (X86)\WINDOWS KITS\10\INCLUDE\10.0.10240.0\UCRT\CORECRT_SEARCH.H
C:\PROGRAM FILES (X86)\WINDOWS KITS\10\INCLUDE\10.0.10240.0\UCRT\STDDEF.H
C:\PROGRAM FILES (X86)\WINDOWS KITS\10\INCLUDE\10.0.10240.0\UCRT\CORECRT_WSTDLIB.H
D:\INFORMATYKA\MICROSOFT VISUAL STUDIO 14.0\VC\INCLUDE\CSTDIO
C:\PROGRAM FILES (X86)\WINDOWS KITS\10\INCLUDE\10.0.10240.0\UCRT\STDIO.H
C:\PROGRAM FILES (X86)\WINDOWS KITS\10\INCLUDE\10.0.10240.0\UCRT\CORECRT_WSTDIO.H
C:\PROGRAM FILES (X86)\WINDOWS KITS\10\INCLUDE\10.0.10240.0\UCRT\CORECRT_STDIO_CONFIG.H
D:\INFORMATYKA\MICROSOFT VISUAL STUDIO 14.0\VC\INCLUDE\STREAMBUF
D:\INFORMATYKA\MICROSOFT VISUAL STUDIO 14.0\VC\INCLUDE\XIOSBASE
D:\INFORMATYKA\MICROSOFT VISUAL STUDIO 14.0\VC\INCLUDE\XLOCALE
D:\INFORMATYKA\MICROSOFT VISUAL STUDIO 14.0\VC\INCLUDE\CSTRING
C:\PROGRAM FILES (X86)\WINDOWS KITS\10\INCLUDE\10.0.10240.0\UCRT\STRING.H
C:\PROGRAM FILES (X86)\WINDOWS KITS\10\INCLUDE\10.0.10240.0\UCRT\CORECRT_MEMORY.H
C:\PROGRAM FILES (X86)\WINDOWS KITS\10\INCLUDE\10.0.10240.0\UCRT\CORECRT_MEMCPY_S.H
C:\PROGRAM FILES (X86)\WINDOWS KITS\10\INCLUDE\10.0.10240.0\UCRT\ERRNO.H
D:\INFORMATYKA\MICROSOFT VISUAL STUDIO 14.0\VC\INCLUDE\VCRUNTIME_STRING.H
C:\PROGRAM FILES (X86)\WINDOWS KITS\10\INCLUDE\10.0.10240.0\UCRT\CORECRT_WSTRING.H
D:\INFORMATYKA\MICROSOFT VISUAL STUDIO 14.0\VC\INCLUDE\STDEXCEPT
D:\INFORMATYKA\MICROSOFT VISUAL STUDIO 14.0\VC\INCLUDE\EXCEPTION
D:\INFORMATYKA\MICROSOFT VISUAL STUDIO 14.0\VC\INCLUDE\TYPE_TRAITS
D:\INFORMATYKA\MICROSOFT VISUAL STUDIO 14.0\VC\INCLUDE\XSTDDEF
D:\INFORMATYKA\MICROSOFT VISUAL STUDIO 14.0\VC\INCLUDE\CSTDDEF
D:\INFORMATYKA\MICROSOFT VISUAL STUDIO 14.0\VC\INCLUDE\INITIALIZER_LIST
C:\PROGRAM FILES (X86)\WINDOWS KITS\10\INCLUDE\10.0.10240.0\UCRT\MALLOC.H
D:\INFORMATYKA\MICROSOFT VISUAL STUDIO 14.0\VC\INCLUDE\VCRUNTIME_EXCEPTION.H
D:\INFORMATYKA\MICROSOFT VISUAL STUDIO 14.0\VC\INCLUDE\EH.H
C:\PROGRAM FILES (X86)\WINDOWS KITS\10\INCLUDE\10.0.10240.0\UCRT\CORECRT_TERMINATE.H
D:\INFORMATYKA\MICROSOFT VISUAL STUDIO 14.0\VC\INCLUDE\XSTRING
D:\INFORMATYKA\MICROSOFT VISUAL STUDIO 14.0\VC\INCLUDE\XMEMORY0
D:\INFORMATYKA\MICROSOFT VISUAL STUDIO 14.0\VC\INCLUDE\CSTDINT
D:\INFORMATYKA\MICROSOFT VISUAL STUDIO 14.0\VC\INCLUDE\STDINT.H
D:\INFORMATYKA\MICROSOFT VISUAL STUDIO 14.0\VC\INCLUDE\LIMITS
D:\INFORMATYKA\MICROSOFT VISUAL STUDIO 14.0\VC\INCLUDE\YMATH.H
D:\INFORMATYKA\MICROSOFT VISUAL STUDIO 14.0\VC\INCLUDE\CFLOAT
C:\PROGRAM FILES (X86)\WINDOWS KITS\10\INCLUDE\10.0.10240.0\UCRT\FLOAT.H
D:\INFORMATYKA\MICROSOFT VISUAL STUDIO 14.0\VC\INCLUDE\CWCHAR
C:\PROGRAM FILES (X86)\WINDOWS KITS\10\INCLUDE\10.0.10240.0\UCRT\WCHAR.H
C:\PROGRAM FILES (X86)\WINDOWS KITS\10\INCLUDE\10.0.10240.0\UCRT\CORECRT_WCONIO.H
C:\PROGRAM FILES (X86)\WINDOWS KITS\10\INCLUDE\10.0.10240.0\UCRT\CORECRT_WCTYPE.H
C:\PROGRAM FILES (X86)\WINDOWS KITS\10\INCLUDE\10.0.10240.0\UCRT\CORECRT_WDIRECT.H
C:\PROGRAM FILES (X86)\WINDOWS KITS\10\INCLUDE\10.0.10240.0\UCRT\CORECRT_WIO.H
C:\PROGRAM FILES (X86)\WINDOWS KITS\10\INCLUDE\10.0.10240.0\UCRT\CORECRT_SHARE.H
C:\PROGRAM FILES (X86)\WINDOWS KITS\10\INCLUDE\10.0.10240.0\UCRT\CORECRT_WPROCESS.H
C:\PROGRAM FILES (X86)\WINDOWS KITS\10\INCLUDE\10.0.10240.0\UCRT\SYS\STAT.H
C:\PROGRAM FILES (X86)\WINDOWS KITS\10\INCLUDE\10.0.10240.0\UCRT\SYS\TYPES.H
D:\INFORMATYKA\MICROSOFT VISUAL STUDIO 14.0\VC\INCLUDE\NEW
D:\INFORMATYKA\MICROSOFT VISUAL STUDIO 14.0\VC\INCLUDE\VCRUNTIME_NEW.H
D:\INFORMATYKA\MICROSOFT VISUAL STUDIO 14.0\VC\INCLUDE\XUTILITY
D:\INFORMATYKA\MICROSOFT VISUAL STUDIO 14.0\VC\INCLUDE\UTILITY
D:\INFORMATYKA\MICROSOFT VISUAL STUDIO 14.0\VC\INCLUDE\IOSFWD
C:\PROGRAM FILES (X86)\WINDOWS KITS\10\INCLUDE\10.0.10240.0\UCRT\CRTDBG.H
D:\INFORMATYKA\MICROSOFT VISUAL STUDIO 14.0\VC\INCLUDE\VCRUNTIME_NEW_DEBUG.H
D:\INFORMATYKA\MICROSOFT VISUAL STUDIO 14.0\VC\INCLUDE\XATOMIC0.H
D:\INFORMATYKA\MICROSOFT VISUAL STUDIO 14.0\VC\INCLUDE\INTRIN.H
D:\INFORMATYKA\MICROSOFT VISUAL STUDIO 14.0\VC\INCLUDE\SETJMP.H
D:\INFORMATYKA\MICROSOFT VISUAL STUDIO 14.0\VC\INCLUDE\IMMINTRIN.H
D:\INFORMATYKA\MICROSOFT VISUAL STUDIO 14.0\VC\INCLUDE\WMMINTRIN.H
D:\INFORMATYKA\MICROSOFT VISUAL STUDIO 14.0\VC\INCLUDE\NMMINTRIN.H
D:\INFORMATYKA\MICROSOFT VISUAL STUDIO 14.0\VC\INCLUDE\SMMINTRIN.H
D:\INFORMATYKA\MICROSOFT VISUAL STUDIO 14.0\VC\INCLUDE\TMMINTRIN.H
D:\INFORMATYKA\MICROSOFT VISUAL STUDIO 14.0\VC\INCLUDE\PMMINTRIN.H
D:\INFORMATYKA\MICROSOFT VISUAL STUDIO 14.0\VC\INCLUDE\EMMINTRIN.H
D:\INFORMATYKA\MICROSOFT VISUAL STUDIO 14.0\VC\INCLUDE\XMMINTRIN.H
D:\INFORMATYKA\MICROSOFT VISUAL STUDIO 14.0\VC\INCLUDE\MMINTRIN.H
D:\INFORMATYKA\MICROSOFT VISUAL STUDIO 14.0\VC\INCLUDE\AMMINTRIN.H
D:\INFORMATYKA\MICROSOFT VISUAL STUDIO 14.0\VC\INCLUDE\MM3DNOW.H
D:\INFORMATYKA\MICROSOFT VISUAL STUDIO 14.0\VC\INCLUDE\TYPEINFO
D:\INFORMATYKA\MICROSOFT VISUAL STUDIO 14.0\VC\INCLUDE\VCRUNTIME_TYPEINFO.H
D:\INFORMATYKA\MICROSOFT VISUAL STUDIO 14.0\VC\INCLUDE\XLOCINFO
D:\INFORMATYKA\MICROSOFT VISUAL STUDIO 14.0\VC\INCLUDE\XLOCINFO.H
C:\PROGRAM FILES (X86)\WINDOWS KITS\10\INCLUDE\10.0.10240.0\UCRT\CTYPE.H
C:\PROGRAM FILES (X86)\WINDOWS KITS\10\INCLUDE\10.0.10240.0\UCRT\LOCALE.H
D:\INFORMATYKA\MICROSOFT VISUAL STUDIO 14.0\VC\INCLUDE\XFACET
D:\INFORMATYKA\MICROSOFT VISUAL STUDIO 14.0\VC\INCLUDE\SYSTEM_ERROR
D:\INFORMATYKA\MICROSOFT VISUAL STUDIO 14.0\VC\INCLUDE\CERRNO
C:\PROGRAM FILES (X86)\WINDOWS KITS\10\INCLUDE\10.0.10240.0\UCRT\SHARE.H
D:\INFORMATYKA\C PROJECTS\CONSOLEAPPLICATION1\CONSOLEAPPLICATION1\KOPIEC.H
D:\INFORMATYKA\C PROJECTS\CONSOLEAPPLICATION1\CONSOLEAPPLICATION1\QUICKSORT.H
D:\INFORMATYKA\C PROJECTS\CONSOLEAPPLICATION1\CONSOLEAPPLICATION1\SIMPLESORT.H
D:\INFORMATYKA\C PROJECTS\CONSOLEAPPLICATION1\CONSOLEAPPLICATION1\SHELLSORT.H
D:\INFORMATYKA\C PROJECTS\CONSOLEAPPLICATION1\CONSOLEAPPLICATION1\MERGESORT.H
