^D:\INFORMATYKA\VISUAL STUDIO PROJECT\CONSOLEAPPLICATION1\CONSOLEAPPLICATION1\DEBUG\CONSOLEAPPLICATION1.OBJ|D:\INFORMATYKA\VISUAL STUDIO PROJECT\CONSOLEAPPLICATION1\CONSOLEAPPLICATION1\DEBUG\KOPIEC.OBJ|D:\INFORMATYKA\VISUAL STUDIO PROJECT\CONSOLEAPPLICATION1\CONSOLEAPPLICATION1\DEBUG\MERGESORT.OBJ|D:\INFORMATYKA\VISUAL STUDIO PROJECT\CONSOLEAPPLICATION1\CONSOLEAPPLICATION1\DEBUG\QUICKSORT.OBJ|D:\INFORMATYKA\VISUAL STUDIO PROJECT\CONSOLEAPPLICATION1\CONSOLEAPPLICATION1\DEBUG\SHELLSORT.OBJ|D:\INFORMATYKA\VISUAL STUDIO PROJECT\CONSOLEAPPLICATION1\CONSOLEAPPLICATION1\DEBUG\SIMPLESORT.OBJ|D:\INFORMATYKA\VISUAL STUDIO PROJECT\CONSOLEAPPLICATION1\CONSOLEAPPLICATION1\DEBUG\STDAFX.OBJ
/OUT:"D:\INFORMATYKA\VISUAL STUDIO PROJECT\CONSOLEAPPLICATION1\DEBUG\CONSOLEAPPLICATION1.EXE" /INCREMENTAL /NOLOGO kernel32.lib user32.lib gdi32.lib winspool.lib comdlg32.lib advapi32.lib shell32.lib ole32.lib oleaut32.lib uuid.lib odbc32.lib odbccp32.lib /MANIFEST /MANIFESTUAC:"level='asInvoker' uiAccess='false'" /manifest:embed /DEBUG /PDB:"D:\INFORMATYKA\VISUAL STUDIO PROJECT\CONSOLEAPPLICATION1\DEBUG\CONSOLEAPPLICATION1.PDB" /SUBSYSTEM:CONSOLE /TLBID:1 /DYNAMICBASE /NXCOMPAT /IMPLIB:"D:\INFORMATYKA\VISUAL STUDIO PROJECT\CONSOLEAPPLICATION1\DEBUG\CONSOLEAPPLICATION1.LIB" /MACHINE:X86 DEBUG\CONSOLEAPPLICATION1.OBJDEBUG\KOPIEC.OBJDEBUG\MERGESORT.OBJDEBUG\QUICKSORT.OBJDEBUG\SHELLSORT.OBJDEBUG\SIMPLESORT.OBJDEBUG\STDAFX.OBJ
^D:\INFORMATYKA\C PROJECTS\CONSOLEAPPLICATION1\CONSOLEAPPLICATION1\DEBUG\CONSOLEAPPLICATION1.OBJ|D:\INFORMATYKA\C PROJECTS\CONSOLEAPPLICATION1\CONSOLEAPPLICATION1\DEBUG\KOPIEC.OBJ|D:\INFORMATYKA\C PROJECTS\CONSOLEAPPLICATION1\CONSOLEAPPLICATION1\DEBUG\MERGESORT.OBJ|D:\INFORMATYKA\C PROJECTS\CONSOLEAPPLICATION1\CONSOLEAPPLICATION1\DEBUG\QUICKSORT.OBJ|D:\INFORMATYKA\C PROJECTS\CONSOLEAPPLICATION1\CONSOLEAPPLICATION1\DEBUG\SHELLSORT.OBJ|D:\INFORMATYKA\C PROJECTS\CONSOLEAPPLICATION1\CONSOLEAPPLICATION1\DEBUG\SIMPLESORT.OBJ|D:\INFORMATYKA\C PROJECTS\CONSOLEAPPLICATION1\CONSOLEAPPLICATION1\DEBUG\STDAFX.OBJ
/OUT:"D:\INFORMATYKA\C PROJECTS\CONSOLEAPPLICATION1\DEBUG\CONSOLEAPPLICATION1.EXE" /INCREMENTAL /NOLOGO KERNEL32.LIB USER32.LIB GDI32.LIB WINSPOOL.LIB COMDLG32.LIB ADVAPI32.LIB SHELL32.LIB OLE32.LIB OLEAUT32.LIB UUID.LIB ODBC32.LIB ODBCCP32.LIB /MANIFEST /MANIFESTUAC:"level='asInvoker' uiAccess='false'" /manifest:embed /DEBUG /PDB:"D:\INFORMATYKA\C PROJECTS\CONSOLEAPPLICATION1\DEBUG\CONSOLEAPPLICATION1.PDB" /SUBSYSTEM:CONSOLE /TLBID:1 /DYNAMICBASE /NXCOMPAT /IMPLIB:"D:\INFORMATYKA\C PROJECTS\CONSOLEAPPLICATION1\DEBUG\CONSOLEAPPLICATION1.LIB" /MACHINE:X86 DEBUG\CONSOLEAPPLICATION1.OBJDEBUG\KOPIEC.OBJDEBUG\MERGESORT.OBJDEBUG\QUICKSORT.OBJDEBUG\SHELLSORT.OBJDEBUG\SIMPLESORT.OBJDEBUG\STDAFX.OBJ
